Project2Test.vcd
$date
	Tue May 23 03:15:03 2023
$end
$version
	Icarus Verilog
$end
$timescale
	1ps
$end
$scope module Project2Test $end
$var wire 3 ! T [2:0] $end
$var wire 1 " Reset $end
$var wire 8 # RF_R4 [7:0] $end
$var wire 8 $ RF_R3 [7:0] $end
$var wire 8 % RF_R2 [7:0] $end
$var wire 8 & RF_R1 [7:0] $end
$var wire 16 ' IR_out [15:0] $end
$var wire 1 ( BRA_out $end
$var wire 8 ) ARF_SP [7:0] $end
$var wire 8 * ARF_PC [7:0] $end
$var wire 8 + ARF_AR [7:0] $end
$var reg 1 , Clock $end
$scope module CPU_Sys $end
$var wire 8 - ARF_AR [7:0] $end
$var wire 8 . ARF_PC [7:0] $end
$var wire 8 / ARF_SP [7:0] $end
$var wire 1 ( BRA_out $end
$var wire 1 , Clock $end
$var wire 16 0 IR_out [15:0] $end
$var wire 8 1 RF_R1 [7:0] $end
$var wire 8 2 RF_R2 [7:0] $end
$var wire 8 3 RF_R3 [7:0] $end
$var wire 8 4 RF_R4 [7:0] $end
$var wire 1 " Reset $end
$var wire 3 5 T_out [2:0] $end
$var wire 3 6 T_binary [2:0] $end
$var wire 1 7 T7 $end
$var wire 1 8 T6 $end
$var wire 1 9 T5 $end
$var wire 1 : T4 $end
$var wire 1 ; T3 $end
$var wire 1 < T2 $end
$var wire 1 = T1 $end
$var wire 1 > T0 $end
$var wire 1 ? SUB $end
$var wire 1 @ ST $end
$var wire 1 A SC_reset $end
$var wire 4 B RF_TSel [3:0] $end
$var wire 4 C RF_RSel [3:0] $end
$var wire 3 D RF_O2Sel [2:0] $end
$var wire 3 E RF_O1Sel [2:0] $end
$var wire 2 F RF_FunSel [1:0] $end
$var wire 1 G PUL $end
$var wire 1 H PSH $end
$var wire 1 I OR $end
$var wire 1 J NOT $end
$var wire 1 K MuxCSel $end
$var wire 2 L MuxBSel [1:0] $end
$var wire 2 M MuxASel [1:0] $end
$var wire 1 N Mem_WR $end
$var wire 1 O Mem_CS $end
$var wire 1 P MOV $end
$var wire 1 Q LSR $end
$var wire 1 R LSL $end
$var wire 1 S LD $end
$var wire 1 T IR_LH $end
$var wire 2 U IR_FunSel [1:0] $end
$var wire 1 V IR_Enable $end
$var wire 1 W INC $end
$var wire 1 X DEC $end
$var wire 1 Y BRA $end
$var wire 1 Z BNE $end
$var wire 4 [ ARF_RSel [3:0] $end
$var wire 2 \ ARF_OutBSel [1:0] $end
$var wire 2 ] ARF_OutASel [1:0] $end
$var wire 2 ^ ARF_FunSel [1:0] $end
$var wire 1 _ AND $end
$var wire 4 ` ALU_FunSel [3:0] $end
$var wire 1 a ADD $end
$scope module ALU_Sys $end
$var wire 1 , Clock $end
$var wire 4 b RF_TSel [3:0] $end
$var wire 4 c RF_RSel [3:0] $end
$var wire 3 d RF_O2Sel [2:0] $end
$var wire 8 e RF_O2 [7:0] $end
$var wire 3 f RF_O1Sel [2:0] $end
$var wire 8 g RF_O1 [7:0] $end
$var wire 2 h RF_FunSel [1:0] $end
$var wire 1 K MuxCSel $end
$var wire 8 i MuxCOut [7:0] $end
$var wire 2 j MuxBSel [1:0] $end
$var wire 8 k MuxBOut [7:0] $end
$var wire 2 l MuxASel [1:0] $end
$var wire 8 m MuxAOut [7:0] $end
$var wire 1 N Mem_WR $end
$var wire 1 O Mem_CS $end
$var wire 8 n MemOut [7:0] $end
$var wire 8 o IR_Out_L [7:0] $end
$var wire 16 p IR_Out [15:0] $end
$var wire 1 T IR_LH $end
$var wire 2 q IR_FunSel [1:0] $end
$var wire 1 V IR_Enable $end
$var wire 4 r ARF_RSel [3:0] $end
$var wire 2 s ARF_OutBSel [1:0] $end
$var wire 8 t ARF_OutB [7:0] $end
$var wire 2 u ARF_OutASel [1:0] $end
$var wire 8 v ARF_OutA [7:0] $end
$var wire 2 w ARF_FunSel [1:0] $end
$var wire 8 x ALU_Out [7:0] $end
$var wire 4 y ALU_FunSel [3:0] $end
$var wire 4 z ALU_FlagOut [3:0] $end
$scope module ALU $end
$var wire 1 , clk $end
$var wire 4 { FunSel [3:0] $end
$var wire 8 | B [7:0] $end
$var wire 8 } A [7:0] $end
$var reg 8 ~ B_neg [7:0] $end
$var reg 4 !" Flags [3:0] $end
$var reg 8 "" OutALU [7:0] $end
$var reg 1 #" cout $end
$upscope $end
$scope module ARF $end
$var wire 1 , clk $end
$var wire 4 $" RSel [3:0] $end
$var wire 2 %" OutBSel [1:0] $end
$var wire 2 &" OutASel [1:0] $end
$var wire 8 '" I [7:0] $end
$var wire 2 (" FunSel [1:0] $end
$var reg 8 )" AR [7:0] $end
$var reg 8 *" OutA [7:0] $end
$var reg 8 +" OutB [7:0] $end
$var reg 8 ," PC [7:0] $end
$var reg 8 -" PCPast [7:0] $end
$var reg 8 ." SP [7:0] $end
$upscope $end
$scope module IR $end
$var wire 1 , clk $end
$var wire 1 V enable $end
$var wire 1 T LH $end
$var wire 8 /" I [7:0] $end
$var wire 2 0" FunSel [1:0] $end
$var reg 16 1" data_out [15:0] $end
$upscope $end
$scope module Mem $end
$var wire 8 2" address [7:0] $end
$var wire 1 , clock $end
$var wire 8 3" data [7:0] $end
$var wire 1 N wr $end
$var wire 1 O cs $end
$var reg 8 4" o [7:0] $end
$upscope $end
$scope module MuxA $end
$var wire 1 , clk $end
$var wire 8 5" in0 [7:0] $end
$var wire 8 6" in1 [7:0] $end
$var wire 8 7" in2 [7:0] $end
$var wire 8 8" in3 [7:0] $end
$var wire 2 9" sel [1:0] $end
$var reg 8 :" out [7:0] $end
$upscope $end
$scope module MuxB $end
$var wire 1 , clk $end
$var wire 8 ;" in0 [7:0] $end
$var wire 8 <" in1 [7:0] $end
$var wire 8 =" in2 [7:0] $end
$var wire 8 >" in3 [7:0] $end
$var wire 2 ?" sel [1:0] $end
$var reg 8 @" out [7:0] $end
$upscope $end
$scope module MuxC $end
$var wire 1 , clk $end
$var wire 8 A" in1 [7:0] $end
$var wire 1 K sel $end
$var wire 8 B" in0 [7:0] $end
$var reg 8 C" out [7:0] $end
$upscope $end
$scope module RF $end
$var wire 8 D" I [7:0] $end
$var wire 1 , clk $end
$var wire 4 E" TSel [3:0] $end
$var wire 4 F" RSel [3:0] $end
$var wire 3 G" O2Sel [2:0] $end
$var wire 3 H" O1Sel [2:0] $end
$var wire 2 I" FunSel [1:0] $end
$var reg 8 J" O1 [7:0] $end
$var reg 8 K" O2 [7:0] $end
$var reg 8 L" R1 [7:0] $end
$var reg 8 M" R2 [7:0] $end
$var reg 8 N" R3 [7:0] $end
$var reg 8 O" R4 [7:0] $end
$var reg 8 P" T1 [7:0] $end
$var reg 8 Q" T2 [7:0] $end
$var reg 8 R" T3 [7:0] $end
$var reg 8 S" T4 [7:0] $end
$upscope $end
$upscope $end
$scope module Ctrl_Unit $end
$var wire 4 T" ALU_FunSel [3:0] $end
$var wire 2 U" ARF_FunSel [1:0] $end
$var wire 2 V" ARF_OutASel [1:0] $end
$var wire 2 W" ARF_OutBSel [1:0] $end
$var wire 4 X" ARF_RSel [3:0] $end
$var wire 1 Y" AddressMode $end
$var wire 1 Z" C_Flag $end
$var wire 4 [" DSTREG [3:0] $end
$var wire 1 V IR_Enable $end
$var wire 2 \" IR_FunSel [1:0] $end
$var wire 1 T IR_LH $end
$var wire 1 O Mem_CS $end
$var wire 1 N Mem_WR $end
$var wire 2 ]" MuxASel [1:0] $end
$var wire 2 ^" MuxBSel [1:0] $end
$var wire 1 K MuxCSel $end
$var wire 1 _" N_Flag $end
$var wire 1 `" O_Flag $end
$var wire 2 a" RF_FunSel [1:0] $end
$var wire 3 b" RF_O1Sel [2:0] $end
$var wire 3 c" RF_O2Sel [2:0] $end
$var wire 4 d" RF_RSel [3:0] $end
$var wire 4 e" RF_TSel [3:0] $end
$var wire 2 f" RSEL [1:0] $end
$var wire 4 g" SREG1 [3:0] $end
$var wire 4 h" SREG2 [3:0] $end
$var wire 1 i" Z_Flag $end
$var wire 1 7 T7 $end
$var wire 1 8 T6 $end
$var wire 1 9 T5 $end
$var wire 1 : T4 $end
$var wire 1 ; T3 $end
$var wire 1 < T2 $end
$var wire 1 = T1 $end
$var wire 1 > T0 $end
$var wire 1 ? SUB $end
$var wire 1 @ ST $end
$var wire 1 A SC_reset $end
$var wire 1 G PUL $end
$var wire 1 H PSH $end
$var wire 1 I OR $end
$var wire 1 J NOT $end
$var wire 1 P MOV $end
$var wire 1 Q LSR $end
$var wire 1 R LSL $end
$var wire 1 S LD $end
$var wire 1 W INC $end
$var wire 1 X DEC $end
$var wire 1 Y BRA $end
$var wire 1 Z BNE $end
$var wire 1 _ AND $end
$var wire 1 a ADD $end
$var reg 4 j" temp_ALU_FunSel [3:0] $end
$var reg 2 k" temp_ARF_FunSel [1:0] $end
$var reg 2 l" temp_ARF_OutASel [1:0] $end
$var reg 2 m" temp_ARF_OutBSel [1:0] $end
$var reg 4 n" temp_ARF_RSel [3:0] $end
$var reg 1 o" temp_IR_Enable $end
$var reg 2 p" temp_IR_FunSel [1:0] $end
$var reg 1 q" temp_IR_LH $end
$var reg 1 r" temp_Mem_CS $end
$var reg 1 s" temp_Mem_WR $end
$var reg 2 t" temp_MuxASel [1:0] $end
$var reg 2 u" temp_MuxBSel [1:0] $end
$var reg 1 v" temp_MuxCSel $end
$var reg 2 w" temp_RF_FunSel [1:0] $end
$var reg 3 x" temp_RF_O1Sel [2:0] $end
$var reg 3 y" temp_RF_O2Sel [2:0] $end
$var reg 4 z" temp_RF_RSel [3:0] $end
$var reg 4 {" temp_RF_TSel [3:0] $end
$var reg 1 A temp_SC_reset $end
$upscope $end
$scope module IR_Decoder $end
$var wire 1 _ S0 $end
$var wire 1 I S1 $end
$var wire 1 Z S10 $end
$var wire 1 P S11 $end
$var wire 1 S S12 $end
$var wire 1 @ S13 $end
$var wire 1 G S14 $end
$var wire 1 H S15 $end
$var wire 1 J S2 $end
$var wire 1 a S3 $end
$var wire 1 ? S4 $end
$var wire 1 Q S5 $end
$var wire 1 R S6 $end
$var wire 1 W S7 $end
$var wire 1 X S8 $end
$var wire 1 Y S9 $end
$var wire 4 |" s [3:0] $end
$upscope $end
$scope module SC $end
$var wire 1 A Reset $end
$var wire 1 , clk $end
$var wire 3 }" T [2:0] $end
$var reg 3 ~" counter [2:0] $end
$upscope $end
$scope module SC_Decoder $end
$var wire 1 > S0 $end
$var wire 1 = S1 $end
$var wire 1 < S2 $end
$var wire 1 ; S3 $end
$var wire 1 : S4 $end
$var wire 1 9 S5 $end
$var wire 1 8 S6 $end
$var wire 1 7 S7 $end
$var wire 3 !# s [2:0] $end
$upscope $end
$upscope $end
$upscope $end
$enddefinitions $end
#0
$dumpvars
b111 !#
b111 ~"
b111 }"
bx |"
b1111 {"
b1111 z"
bx y"
bx x"
b0 w"
xv"
bx u"
bx t"
xs"
1r"
xq"
b0 p"
1o"
b1111 n"
bx m"
bx l"
b0 k"
bx j"
xi"
bx h"
bx g"
bx f"
b1111 e"
b1111 d"
bx c"
bx b"
b0 a"
x`"
x_"
bx ^"
bx ]"
b0 \"
bx ["
xZ"
xY"
b1111 X"
bx W"
bx V"
b0 U"
bx T"
bx S"
bx R"
bx Q"
bx P"
bx O"
bx N"
bx M"
bx L"
bx K"
bx J"
b0 I"
bx H"
bx G"
b1111 F"
b1111 E"
bx D"
bx C"
bx B"
bx A"
bx @"
bx ?"
bx >"
bx ="
bz <"
bx ;"
bx :"
bx 9"
bx 8"
bx 7"
bz 6"
bx 5"
bz 4"
bx 3"
bx 2"
bx 1"
b0 0"
bz /"
bx ."
bx -"
bx ,"
bx +"
bx *"
bx )"
b0 ("
bx '"
bx &"
bx %"
b1111 $"
x#"
bx ""
bx !"
bx ~
bx }
bx |
bx {
bx z
bx y
bx x
b0 w
bx v
bx u
bx t
bx s
b1111 r
b0 q
bx p
bx o
bz n
bx m
bx l
bx k
bx j
bx i
b0 h
bx g
bx f
bx e
bx d
b1111 c
b1111 b
xa
bx `
x_
b0 ^
bx ]
bx \
b1111 [
xZ
xY
xX
xW
1V
b0 U
xT
xS
xR
xQ
xP
1O
xN
bx M
bx L
xK
xJ
xI
xH
xG
b0 F
bx E
bx D
b1111 C
b1111 B
0A
x@
x?
0>
0=
0<
0;
0:
09
08
17
b111 6
b111 5
bx 4
bx 3
bx 2
bx 1
bx 0
bx /
bx .
bx -
0,
bx +
bx *
bx )
x(
bx '
bx &
bx %
bx $
bx #
0"
b111 !
$end
#5000
1_
bx n
bx /"
bx 4"
bx 6"
bx <"
0?
0X
0S
0N
0s"
0O
0r"
b11 ^
b11 w
b11 ("
b11 U"
b11 k"
b1000 [
b1000 r
b1000 $"
b1000 X"
b1000 n"
b0 B
b0 b
b0 E"
b0 e"
b0 {"
b0 C
b0 c
b0 F"
b0 d"
b0 z"
b1 U
b1 q
b1 0"
b1 \"
b1 p"
1T
1q"
1>
0J
0R
0Z
0G
0I
0a
0Q
0W
0(
0Y
0P
0@
0H
07
0Y"
b0 h"
b0 g"
b0 ["
b0 f"
b0 |"
b0 o
b0 7"
b0 ="
0_"
0i"
b0 !
b0 5
b0 6
b0 }"
b0 ~"
b0 !#
b0 P"
b0 Q"
b0 R"
b0 S"
b0 &
b0 1
b0 L"
b0 %
b0 2
b0 M"
b0 $
b0 3
b0 N"
b0 #
b0 4
b0 O"
b0 -"
b0 )
b0 /
b0 ."
b0 +
b0 -
b0 )"
b0 *
b0 .
b0 ,"
b0 '
b0 0
b0 p
b0 1"
b0x0x z
b0x0x !"
1,
#10000
0,
#15000
x?
xQ
xR
xW
xX
x(
xY
xZ
xP
xS
x@
xG
xH
x_
0T
0q"
xJ
xa
0>
xI
1=
xY"
bx ["
bx f"
bx |"
bx00000000 '
bx00000000 0
bx00000000 p
bx00000000 1"
b1 *
b1 .
b1 ,"
b1 !
b1 5
b1 6
b1 }"
b1 ~"
b1 !#
1,
#20000
0,
#25000
1<
0=
bx h"
bx g"
bx o
bx 7"
bx ="
b10 !
b10 5
b10 6
b10 }"
b10 ~"
b10 !#
b10 *
b10 .
b10 ,"
bx '
bx 0
bx p
bx 1"
1,
#30000
0,
#35000
0<
1;
b11 *
b11 .
b11 ,"
b11 !
b11 5
b11 6
b11 }"
b11 ~"
b11 !#
1,
#40000
0,
#45000
1:
0;
b100 !
b100 5
b100 6
b100 }"
b100 ~"
b100 !#
b100 *
b100 .
b100 ,"
1,
#50000
0,
#55000
0:
19
b101 *
b101 .
b101 ,"
b101 !
b101 5
b101 6
b101 }"
b101 ~"
b101 !#
1,
#60000
0,
#65000
0:
18
09
b110 !
b110 5
b110 6
b110 }"
b110 ~"
b110 !#
b110 *
b110 .
b110 ,"
1,
#70000
0,
#75000
bz n
bz /"
bz 4"
bz 6"
bz <"
08
1O
1r"
b0 ^
b0 w
b0 ("
b0 U"
b0 k"
b1111 [
b1111 r
b1111 $"
b1111 X"
b1111 n"
b1111 B
b1111 b
b1111 E"
b1111 e"
b1111 {"
b1111 C
b1111 c
b1111 F"
b1111 d"
b1111 z"
b0 U
b0 q
b0 0"
b0 \"
b0 p"
17
b111 *
b111 .
b111 ,"
b111 !
b111 5
b111 6
b111 }"
b111 ~"
b111 !#
1,
#80000
0,
#85000
1_
bx n
bx /"
bx 4"
bx 6"
bx <"
0?
0X
0S
0O
0r"
b11 ^
b11 w
b11 ("
b11 U"
b11 k"
b1000 [
b1000 r
b1000 $"
b1000 X"
b1000 n"
b0 B
b0 b
b0 E"
b0 e"
b0 {"
b0 C
b0 c
b0 F"
b0 d"
b0 z"
b1 U
b1 q
b1 0"
b1 \"
b1 p"
1T
1q"
1>
0J
0R
0Z
0G
0I
0a
0Q
0W
0(
0Y
0P
0@
0H
07
0Y"
b0 h"
b0 g"
b0 ["
b0 f"
b0 |"
b0 o
b0 7"
b0 ="
b0 !
b0 5
b0 6
b0 }"
b0 ~"
b0 !#
b0 *
b0 .
b0 ,"
b0 '
b0 0
b0 p
b0 1"
1,
#90000
0,
#95000
x?
xQ
xR
xW
xX
x(
xY
xZ
xP
xS
x@
xG
xH
x_
0T
0q"
xJ
xa
0>
xI
1=
xY"
bx ["
bx f"
bx |"
bx00000000 '
bx00000000 0
bx00000000 p
bx00000000 1"
b1 *
b1 .
b1 ,"
b1 !
b1 5
b1 6
b1 }"
b1 ~"
b1 !#
1,
#100000
0,
#105000
1<
0=
bx h"
bx g"
bx o
bx 7"
bx ="
b10 !
b10 5
b10 6
b10 }"
b10 ~"
b10 !#
b10 *
b10 .
b10 ,"
bx '
bx 0
bx p
bx 1"
1,
#110000
0,
#115000
0<
1;
b11 *
b11 .
b11 ,"
b11 !
b11 5
b11 6
b11 }"
b11 ~"
b11 !#
1,
#120000
0,
#125000
1:
0;
b100 !
b100 5
b100 6
b100 }"
b100 ~"
b100 !#
b100 *
b100 .
b100 ,"
1,
#130000
0,
#135000
0:
19
b101 *
b101 .
b101 ,"
b101 !
b101 5
b101 6
b101 }"
b101 ~"
b101 !#
1,
#140000
0,
#145000
0:
18
09
b110 !
b110 5
b110 6
b110 }"
b110 ~"
b110 !#
b110 *
b110 .
b110 ,"
1,
#150000
0,
#155000
bz n
bz /"
bz 4"
bz 6"
bz <"
08
1O
1r"
b0 ^
b0 w
b0 ("
b0 U"
b0 k"
b1111 [
b1111 r
b1111 $"
b1111 X"
b1111 n"
b1111 B
b1111 b
b1111 E"
b1111 e"
b1111 {"
b1111 C
b1111 c
b1111 F"
b1111 d"
b1111 z"
b0 U
b0 q
b0 0"
b0 \"
b0 p"
17
b111 *
b111 .
b111 ,"
b111 !
b111 5
b111 6
b111 }"
b111 ~"
b111 !#
1,
#160000
0,
#165000
1_
bx n
bx /"
bx 4"
bx 6"
bx <"
0?
0X
0S
0O
0r"
b11 ^
b11 w
b11 ("
b11 U"
b11 k"
b1000 [
b1000 r
b1000 $"
b1000 X"
b1000 n"
b0 B
b0 b
b0 E"
b0 e"
b0 {"
b0 C
b0 c
b0 F"
b0 d"
b0 z"
b1 U
b1 q
b1 0"
b1 \"
b1 p"
1T
1q"
1>
0J
0R
0Z
0G
0I
0a
0Q
0W
0(
0Y
0P
0@
0H
07
0Y"
b0 h"
b0 g"
b0 ["
b0 f"
b0 |"
b0 o
b0 7"
b0 ="
b0 !
b0 5
b0 6
b0 }"
b0 ~"
b0 !#
b0 *
b0 .
b0 ,"
b0 '
b0 0
b0 p
b0 1"
1,
#170000
0,
#175000
x?
xQ
xR
xW
xX
x(
xY
xZ
xP
xS
x@
xG
xH
x_
0T
0q"
xJ
xa
0>
xI
1=
xY"
bx ["
bx f"
bx |"
bx00000000 '
bx00000000 0
bx00000000 p
bx00000000 1"
b1 *
b1 .
b1 ,"
b1 !
b1 5
b1 6
b1 }"
b1 ~"
b1 !#
1,
#180000
0,
#185000
1<
0=
bx h"
bx g"
bx o
bx 7"
bx ="
b10 !
b10 5
b10 6
b10 }"
b10 ~"
b10 !#
b10 *
b10 .
b10 ,"
bx '
bx 0
bx p
bx 1"
1,
#190000
0,
#195000
0<
1;
b11 *
b11 .
b11 ,"
b11 !
b11 5
b11 6
b11 }"
b11 ~"
b11 !#
1,
#200000
0,
#205000
1:
0;
b100 !
b100 5
b100 6
b100 }"
b100 ~"
b100 !#
b100 *
b100 .
b100 ,"
1,
#210000
0,
#215000
0:
19
b101 *
b101 .
b101 ,"
b101 !
b101 5
b101 6
b101 }"
b101 ~"
b101 !#
1,
#220000
0,
#225000
0:
18
09
b110 !
b110 5
b110 6
b110 }"
b110 ~"
b110 !#
b110 *
b110 .
b110 ,"
1,
#230000
0,
#235000
bz n
bz /"
bz 4"
bz 6"
bz <"
08
1O
1r"
b0 ^
b0 w
b0 ("
b0 U"
b0 k"
b1111 [
b1111 r
b1111 $"
b1111 X"
b1111 n"
b1111 B
b1111 b
b1111 E"
b1111 e"
b1111 {"
b1111 C
b1111 c
b1111 F"
b1111 d"
b1111 z"
b0 U
b0 q
b0 0"
b0 \"
b0 p"
17
b111 *
b111 .
b111 ,"
b111 !
b111 5
b111 6
b111 }"
b111 ~"
b111 !#
1,
#240000
0,
#245000
1_
bx n
bx /"
bx 4"
bx 6"
bx <"
0?
0X
0S
0O
0r"
b11 ^
b11 w
b11 ("
b11 U"
b11 k"
b1000 [
b1000 r
b1000 $"
b1000 X"
b1000 n"
b0 B
b0 b
b0 E"
b0 e"
b0 {"
b0 C
b0 c
b0 F"
b0 d"
b0 z"
b1 U
b1 q
b1 0"
b1 \"
b1 p"
1T
1q"
1>
0J
0R
0Z
0G
0I
0a
0Q
0W
0(
0Y
0P
0@
0H
07
0Y"
b0 h"
b0 g"
b0 ["
b0 f"
b0 |"
b0 o
b0 7"
b0 ="
b0 !
b0 5
b0 6
b0 }"
b0 ~"
b0 !#
b0 *
b0 .
b0 ,"
b0 '
b0 0
b0 p
b0 1"
1,
#250000
0,
#255000
x?
xQ
xR
xW
xX
x(
xY
xZ
xP
xS
x@
xG
xH
x_
0T
0q"
xJ
xa
0>
xI
1=
xY"
bx ["
bx f"
bx |"
bx00000000 '
bx00000000 0
bx00000000 p
bx00000000 1"
b1 *
b1 .
b1 ,"
b1 !
b1 5
b1 6
b1 }"
b1 ~"
b1 !#
1,
#260000
0,
#265000
1<
0=
bx h"
bx g"
bx o
bx 7"
bx ="
b10 !
b10 5
b10 6
b10 }"
b10 ~"
b10 !#
b10 *
b10 .
b10 ,"
bx '
bx 0
bx p
bx 1"
1,
#270000
0,
#275000
0<
1;
b11 *
b11 .
b11 ,"
b11 !
b11 5
b11 6
b11 }"
b11 ~"
b11 !#
1,
#280000
0,
#285000
1:
0;
b100 !
b100 5
b100 6
b100 }"
b100 ~"
b100 !#
b100 *
b100 .
b100 ,"
1,
#290000
0,
#295000
0:
19
b101 *
b101 .
b101 ,"
b101 !
b101 5
b101 6
b101 }"
b101 ~"
b101 !#
1,
#300000
0,
#305000
0:
18
09
b110 !
b110 5
b110 6
b110 }"
b110 ~"
b110 !#
b110 *
b110 .
b110 ,"
1,
#310000
0,
#315000
bz n
bz /"
bz 4"
bz 6"
bz <"
08
1O
1r"
b0 ^
b0 w
b0 ("
b0 U"
b0 k"
b1111 [
b1111 r
b1111 $"
b1111 X"
b1111 n"
b1111 B
b1111 b
b1111 E"
b1111 e"
b1111 {"
b1111 C
b1111 c
b1111 F"
b1111 d"
b1111 z"
b0 U
b0 q
b0 0"
b0 \"
b0 p"
17
b111 *
b111 .
b111 ,"
b111 !
b111 5
b111 6
b111 }"
b111 ~"
b111 !#
1,
#320000
0,
#325000
1_
bx n
bx /"
bx 4"
bx 6"
bx <"
0?
0X
0S
0O
0r"
b11 ^
b11 w
b11 ("
b11 U"
b11 k"
b1000 [
b1000 r
b1000 $"
b1000 X"
b1000 n"
b0 B
b0 b
b0 E"
b0 e"
b0 {"
b0 C
b0 c
b0 F"
b0 d"
b0 z"
b1 U
b1 q
b1 0"
b1 \"
b1 p"
1T
1q"
1>
0J
0R
0Z
0G
0I
0a
0Q
0W
0(
0Y
0P
0@
0H
07
0Y"
b0 h"
b0 g"
b0 ["
b0 f"
b0 |"
b0 o
b0 7"
b0 ="
b0 !
b0 5
b0 6
b0 }"
b0 ~"
b0 !#
b0 *
b0 .
b0 ,"
b0 '
b0 0
b0 p
b0 1"
1,
#330000
0,
#335000
x?
xQ
xR
xW
xX
x(
xY
xZ
xP
xS
x@
xG
xH
x_
0T
0q"
xJ
xa
0>
xI
1=
xY"
bx ["
bx f"
bx |"
bx00000000 '
bx00000000 0
bx00000000 p
bx00000000 1"
b1 *
b1 .
b1 ,"
b1 !
b1 5
b1 6
b1 }"
b1 ~"
b1 !#
1,
#340000
0,
#345000
1<
0=
bx h"
bx g"
bx o
bx 7"
bx ="
b10 !
b10 5
b10 6
b10 }"
b10 ~"
b10 !#
b10 *
b10 .
b10 ,"
bx '
bx 0
bx p
bx 1"
1,
#350000
0,
#355000
0<
1;
b11 *
b11 .
b11 ,"
b11 !
b11 5
b11 6
b11 }"
b11 ~"
b11 !#
1,
#360000
0,
#365000
1:
0;
b100 !
b100 5
b100 6
b100 }"
b100 ~"
b100 !#
b100 *
b100 .
b100 ,"
1,
#370000
0,
#375000
0:
19
b101 *
b101 .
b101 ,"
b101 !
b101 5
b101 6
b101 }"
b101 ~"
b101 !#
1,
#380000
0,
#385000
0:
18
09
b110 !
b110 5
b110 6
b110 }"
b110 ~"
b110 !#
b110 *
b110 .
b110 ,"
1,
#390000
0,
#395000
bz n
bz /"
bz 4"
bz 6"
bz <"
08
1O
1r"
b0 ^
b0 w
b0 ("
b0 U"
b0 k"
b1111 [
b1111 r
b1111 $"
b1111 X"
b1111 n"
b1111 B
b1111 b
b1111 E"
b1111 e"
b1111 {"
b1111 C
b1111 c
b1111 F"
b1111 d"
b1111 z"
b0 U
b0 q
b0 0"
b0 \"
b0 p"
17
b111 *
b111 .
b111 ,"
b111 !
b111 5
b111 6
b111 }"
b111 ~"
b111 !#
1,
#400000
0,
#405000
1_
bx n
bx /"
bx 4"
bx 6"
bx <"
0?
0X
0S
0O
0r"
b11 ^
b11 w
b11 ("
b11 U"
b11 k"
b1000 [
b1000 r
b1000 $"
b1000 X"
b1000 n"
b0 B
b0 b
b0 E"
b0 e"
b0 {"
b0 C
b0 c
b0 F"
b0 d"
b0 z"
b1 U
b1 q
b1 0"
b1 \"
b1 p"
1T
1q"
1>
0J
0R
0Z
0G
0I
0a
0Q
0W
0(
0Y
0P
0@
0H
07
0Y"
b0 h"
b0 g"
b0 ["
b0 f"
b0 |"
b0 o
b0 7"
b0 ="
b0 !
b0 5
b0 6
b0 }"
b0 ~"
b0 !#
b0 *
b0 .
b0 ,"
b0 '
b0 0
b0 p
b0 1"
1,
#410000
0,
#415000
x?
xQ
xR
xW
xX
x(
xY
xZ
xP
xS
x@
xG
xH
x_
0T
0q"
xJ
xa
0>
xI
1=
xY"
bx ["
bx f"
bx |"
bx00000000 '
bx00000000 0
bx00000000 p
bx00000000 1"
b1 *
b1 .
b1 ,"
b1 !
b1 5
b1 6
b1 }"
b1 ~"
b1 !#
1,
#420000
0,
#425000
1<
0=
bx h"
bx g"
bx o
bx 7"
bx ="
b10 !
b10 5
b10 6
b10 }"
b10 ~"
b10 !#
b10 *
b10 .
b10 ,"
bx '
bx 0
bx p
bx 1"
1,
#430000
0,
#435000
0<
1;
b11 *
b11 .
b11 ,"
b11 !
b11 5
b11 6
b11 }"
b11 ~"
b11 !#
1,
#440000
0,
#445000
1:
0;
b100 !
b100 5
b100 6
b100 }"
b100 ~"
b100 !#
b100 *
b100 .
b100 ,"
1,
#450000
0,
#455000
0:
19
b101 *
b101 .
b101 ,"
b101 !
b101 5
b101 6
b101 }"
b101 ~"
b101 !#
1,
#460000
0,
#465000
0:
18
09
b110 !
b110 5
b110 6
b110 }"
b110 ~"
b110 !#
b110 *
b110 .
b110 ,"
1,
#470000
0,
#475000
bz n
bz /"
bz 4"
bz 6"
bz <"
08
1O
1r"
b0 ^
b0 w
b0 ("
b0 U"
b0 k"
b1111 [
b1111 r
b1111 $"
b1111 X"
b1111 n"
b1111 B
b1111 b
b1111 E"
b1111 e"
b1111 {"
b1111 C
b1111 c
b1111 F"
b1111 d"
b1111 z"
b0 U
b0 q
b0 0"
b0 \"
b0 p"
17
b111 *
b111 .
b111 ,"
b111 !
b111 5
b111 6
b111 }"
b111 ~"
b111 !#
1,
#480000
0,
#485000
1_
bx n
bx /"
bx 4"
bx 6"
bx <"
0?
0X
0S
0O
0r"
b11 ^
b11 w
b11 ("
b11 U"
b11 k"
b1000 [
b1000 r
b1000 $"
b1000 X"
b1000 n"
b0 B
b0 b
b0 E"
b0 e"
b0 {"
b0 C
b0 c
b0 F"
b0 d"
b0 z"
b1 U
b1 q
b1 0"
b1 \"
b1 p"
1T
1q"
1>
0J
0R
0Z
0G
0I
0a
0Q
0W
0(
0Y
0P
0@
0H
07
0Y"
b0 h"
b0 g"
b0 ["
b0 f"
b0 |"
b0 o
b0 7"
b0 ="
b0 !
b0 5
b0 6
b0 }"
b0 ~"
b0 !#
b0 *
b0 .
b0 ,"
b0 '
b0 0
b0 p
b0 1"
1,
#490000
0,
#495000
x?
xQ
xR
xW
xX
x(
xY
xZ
xP
xS
x@
xG
xH
x_
0T
0q"
xJ
xa
0>
xI
1=
xY"
bx ["
bx f"
bx |"
bx00000000 '
bx00000000 0
bx00000000 p
bx00000000 1"
b1 *
b1 .
b1 ,"
b1 !
b1 5
b1 6
b1 }"
b1 ~"
b1 !#
1,
#500000
0,
#505000
1<
0=
bx h"
bx g"
bx o
bx 7"
bx ="
b10 !
b10 5
b10 6
b10 }"
b10 ~"
b10 !#
b10 *
b10 .
b10 ,"
bx '
bx 0
bx p
bx 1"
1,
#510000
0,
#515000
0<
1;
b11 *
b11 .
b11 ,"
b11 !
b11 5
b11 6
b11 }"
b11 ~"
b11 !#
1,
#520000
0,
#525000
1:
0;
b100 !
b100 5
b100 6
b100 }"
b100 ~"
b100 !#
b100 *
b100 .
b100 ,"
1,
#530000
0,
#535000
0:
19
b101 *
b101 .
b101 ,"
b101 !
b101 5
b101 6
b101 }"
b101 ~"
b101 !#
1,
#540000
0,
#545000
0:
18
09
b110 !
b110 5
b110 6
b110 }"
b110 ~"
b110 !#
b110 *
b110 .
b110 ,"
1,
#550000
0,
#555000
bz n
bz /"
bz 4"
bz 6"
bz <"
08
1O
1r"
b0 ^
b0 w
b0 ("
b0 U"
b0 k"
b1111 [
b1111 r
b1111 $"
b1111 X"
b1111 n"
b1111 B
b1111 b
b1111 E"
b1111 e"
b1111 {"
b1111 C
b1111 c
b1111 F"
b1111 d"
b1111 z"
b0 U
b0 q
b0 0"
b0 \"
b0 p"
17
b111 *
b111 .
b111 ,"
b111 !
b111 5
b111 6
b111 }"
b111 ~"
b111 !#
1,
#560000
0,
