Project2Test.vcd
$date
	Wed May 24 23:18:18 2023
$end
$version
	Icarus Verilog
$end
$timescale
	1ps
$end
$scope module Project2Test $end
$var wire 8 ! mem_out [7:0] $end
$var wire 1 " T7 $end
$var wire 1 # T6 $end
$var wire 1 $ T5 $end
$var wire 1 % T4 $end
$var wire 1 & T3 $end
$var wire 1 ' T2 $end
$var wire 1 ( T1 $end
$var wire 1 ) T0 $end
$var wire 3 * T [2:0] $end
$var wire 1 + SUB_out $end
$var wire 1 , ST_out $end
$var wire 1 - Reset $end
$var wire 8 . RF_R4 [7:0] $end
$var wire 8 / RF_R3 [7:0] $end
$var wire 8 0 RF_R2 [7:0] $end
$var wire 8 1 RF_R1 [7:0] $end
$var wire 1 2 PUL_out $end
$var wire 1 3 PSH_out $end
$var wire 1 4 OR_out $end
$var wire 1 5 NOT_out $end
$var wire 1 6 MOV_out $end
$var wire 1 7 LSR_out $end
$var wire 1 8 LSL_out $end
$var wire 1 9 LD_out $end
$var wire 16 : IR_out [15:0] $end
$var wire 1 ; INC_out $end
$var wire 1 < DEC_out $end
$var wire 1 = BRA_out $end
$var wire 1 > BNE_out $end
$var wire 8 ? ARF_SP [7:0] $end
$var wire 8 @ ARF_PC [7:0] $end
$var wire 8 A ARF_AR [7:0] $end
$var wire 1 B AND_out $end
$var wire 1 C ADD_out $end
$var reg 1 D Clock $end
$scope module CPU_Sys $end
$var wire 1 C ADD_out $end
$var wire 1 B AND_out $end
$var wire 8 E ARF_AR [7:0] $end
$var wire 8 F ARF_PC [7:0] $end
$var wire 8 G ARF_SP [7:0] $end
$var wire 1 > BNE_out $end
$var wire 1 = BRA_out $end
$var wire 1 D Clock $end
$var wire 1 < DEC_out $end
$var wire 1 ; INC_out $end
$var wire 16 H IR_out [15:0] $end
$var wire 1 9 LD_out $end
$var wire 1 8 LSL_out $end
$var wire 1 7 LSR_out $end
$var wire 1 6 MOV_out $end
$var wire 1 5 NOT_out $end
$var wire 1 4 OR_out $end
$var wire 1 3 PSH_out $end
$var wire 1 2 PUL_out $end
$var wire 8 I RF_R1 [7:0] $end
$var wire 8 J RF_R2 [7:0] $end
$var wire 8 K RF_R3 [7:0] $end
$var wire 8 L RF_R4 [7:0] $end
$var wire 1 - Reset $end
$var wire 1 , ST_out $end
$var wire 1 + SUB_out $end
$var wire 1 ) T0_out $end
$var wire 1 ( T1_out $end
$var wire 1 ' T2_out $end
$var wire 1 & T3_out $end
$var wire 1 % T4_out $end
$var wire 1 $ T5_out $end
$var wire 1 # T6_out $end
$var wire 1 " T7_out $end
$var wire 3 M T_out [2:0] $end
$var wire 8 N mem_out [7:0] $end
$var wire 3 O T_binary [2:0] $end
$var wire 1 P T7 $end
$var wire 1 Q T6 $end
$var wire 1 R T5 $end
$var wire 1 S T4 $end
$var wire 1 T T3 $end
$var wire 1 U T2 $end
$var wire 1 V T1 $end
$var wire 1 W T0 $end
$var wire 1 X SUB $end
$var wire 1 Y ST $end
$var wire 1 Z SC_reset $end
$var wire 4 [ RF_TSel [3:0] $end
$var wire 4 \ RF_RSel [3:0] $end
$var wire 3 ] RF_O2Sel [2:0] $end
$var wire 3 ^ RF_O1Sel [2:0] $end
$var wire 2 _ RF_FunSel [1:0] $end
$var wire 1 ` PUL $end
$var wire 1 a PSH $end
$var wire 1 b OR $end
$var wire 1 c NOT $end
$var wire 1 d MuxCSel $end
$var wire 2 e MuxBSel [1:0] $end
$var wire 2 f MuxASel [1:0] $end
$var wire 1 g Mem_WR $end
$var wire 1 h Mem_CS $end
$var wire 1 i MOV $end
$var wire 1 j LSR $end
$var wire 1 k LSL $end
$var wire 1 l LD $end
$var wire 1 m IR_LH $end
$var wire 2 n IR_FunSel [1:0] $end
$var wire 1 o IR_Enable $end
$var wire 1 p INC $end
$var wire 1 q DEC $end
$var wire 1 r BRA $end
$var wire 1 s BNE $end
$var wire 4 t ARF_RSel [3:0] $end
$var wire 2 u ARF_OutBSel [1:0] $end
$var wire 2 v ARF_OutASel [1:0] $end
$var wire 2 w ARF_FunSel [1:0] $end
$var wire 1 x AND $end
$var wire 4 y ALU_FunSel [3:0] $end
$var wire 1 z ADD $end
$scope module ALU_Sys $end
$var wire 1 D Clock $end
$var wire 4 { RF_TSel [3:0] $end
$var wire 4 | RF_RSel [3:0] $end
$var wire 3 } RF_O2Sel [2:0] $end
$var wire 8 ~ RF_O2 [7:0] $end
$var wire 3 !" RF_O1Sel [2:0] $end
$var wire 8 "" RF_O1 [7:0] $end
$var wire 2 #" RF_FunSel [1:0] $end
$var wire 1 d MuxCSel $end
$var wire 8 $" MuxCOut [7:0] $end
$var wire 2 %" MuxBSel [1:0] $end
$var wire 8 &" MuxBOut [7:0] $end
$var wire 2 '" MuxASel [1:0] $end
$var wire 8 (" MuxAOut [7:0] $end
$var wire 1 g Mem_WR $end
$var wire 1 h Mem_CS $end
$var wire 8 )" MemOut [7:0] $end
$var wire 8 *" IR_Out_L [7:0] $end
$var wire 16 +" IR_Out [15:0] $end
$var wire 1 m IR_LH $end
$var wire 2 ," IR_FunSel [1:0] $end
$var wire 1 o IR_Enable $end
$var wire 4 -" ARF_RSel [3:0] $end
$var wire 2 ." ARF_OutBSel [1:0] $end
$var wire 8 /" ARF_OutB [7:0] $end
$var wire 2 0" ARF_OutASel [1:0] $end
$var wire 8 1" ARF_OutA [7:0] $end
$var wire 2 2" ARF_FunSel [1:0] $end
$var wire 8 3" ALU_Out [7:0] $end
$var wire 4 4" ALU_FunSel [3:0] $end
$var wire 4 5" ALU_FlagOut [3:0] $end
$scope module ALU $end
$var wire 1 D clk $end
$var wire 4 6" FunSel [3:0] $end
$var wire 8 7" B [7:0] $end
$var wire 8 8" A [7:0] $end
$var reg 8 9" B_neg [7:0] $end
$var reg 4 :" Flags [3:0] $end
$var reg 8 ;" OutALU [7:0] $end
$var reg 1 <" cout $end
$upscope $end
$scope module ARF $end
$var wire 1 D clk $end
$var wire 4 =" RSel [3:0] $end
$var wire 2 >" OutBSel [1:0] $end
$var wire 2 ?" OutASel [1:0] $end
$var wire 8 @" I [7:0] $end
$var wire 2 A" FunSel [1:0] $end
$var reg 8 B" AR [7:0] $end
$var reg 8 C" OutA [7:0] $end
$var reg 8 D" OutB [7:0] $end
$var reg 8 E" PC [7:0] $end
$var reg 8 F" PCPast [7:0] $end
$var reg 8 G" SP [7:0] $end
$upscope $end
$scope module IR $end
$var wire 1 D clk $end
$var wire 1 o enable $end
$var wire 1 m LH $end
$var wire 8 H" I [7:0] $end
$var wire 2 I" FunSel [1:0] $end
$var reg 16 J" data_out [15:0] $end
$upscope $end
$scope module Mem $end
$var wire 8 K" address [7:0] $end
$var wire 1 D clock $end
$var wire 8 L" data [7:0] $end
$var wire 1 g wr $end
$var wire 1 h cs $end
$var reg 8 M" o [7:0] $end
$upscope $end
$scope module MuxA $end
$var wire 1 D clk $end
$var wire 8 N" in0 [7:0] $end
$var wire 8 O" in1 [7:0] $end
$var wire 8 P" in2 [7:0] $end
$var wire 8 Q" in3 [7:0] $end
$var wire 2 R" sel [1:0] $end
$var reg 8 S" out [7:0] $end
$upscope $end
$scope module MuxB $end
$var wire 1 D clk $end
$var wire 8 T" in0 [7:0] $end
$var wire 8 U" in1 [7:0] $end
$var wire 8 V" in2 [7:0] $end
$var wire 8 W" in3 [7:0] $end
$var wire 2 X" sel [1:0] $end
$var reg 8 Y" out [7:0] $end
$upscope $end
$scope module MuxC $end
$var wire 1 D clk $end
$var wire 8 Z" in1 [7:0] $end
$var wire 1 d sel $end
$var wire 8 [" in0 [7:0] $end
$var reg 8 \" out [7:0] $end
$upscope $end
$scope module RF $end
$var wire 8 ]" I [7:0] $end
$var wire 1 D clk $end
$var wire 4 ^" TSel [3:0] $end
$var wire 4 _" RSel [3:0] $end
$var wire 3 `" O2Sel [2:0] $end
$var wire 3 a" O1Sel [2:0] $end
$var wire 2 b" FunSel [1:0] $end
$var reg 8 c" O1 [7:0] $end
$var reg 8 d" O2 [7:0] $end
$var reg 8 e" R1 [7:0] $end
$var reg 8 f" R2 [7:0] $end
$var reg 8 g" R3 [7:0] $end
$var reg 8 h" R4 [7:0] $end
$var reg 8 i" T1 [7:0] $end
$var reg 8 j" T2 [7:0] $end
$var reg 8 k" T3 [7:0] $end
$var reg 8 l" T4 [7:0] $end
$upscope $end
$upscope $end
$scope module Ctrl_Unit $end
$var wire 1 m" AddressMode $end
$var wire 1 n" C_Flag $end
$var wire 1 D Clock $end
$var wire 4 o" DSTREG [3:0] $end
$var wire 1 p" N_Flag $end
$var wire 1 q" O_Flag $end
$var wire 2 r" RSEL [1:0] $end
$var wire 4 s" SREG1 [3:0] $end
$var wire 4 t" SREG2 [3:0] $end
$var wire 1 u" Z_Flag $end
$var wire 1 P T7 $end
$var wire 1 Q T6 $end
$var wire 1 R T5 $end
$var wire 1 S T4 $end
$var wire 1 T T3 $end
$var wire 1 U T2 $end
$var wire 1 V T1 $end
$var wire 1 W T0 $end
$var wire 1 X SUB $end
$var wire 1 Y ST $end
$var wire 1 ` PUL $end
$var wire 1 a PSH $end
$var wire 1 b OR $end
$var wire 1 c NOT $end
$var wire 1 i MOV $end
$var wire 1 j LSR $end
$var wire 1 k LSL $end
$var wire 1 l LD $end
$var wire 1 p INC $end
$var wire 1 q DEC $end
$var wire 1 r BRA $end
$var wire 1 s BNE $end
$var wire 1 x AND $end
$var wire 1 z ADD $end
$var reg 4 v" ALU_FunSel [3:0] $end
$var reg 2 w" ARF_FunSel [1:0] $end
$var reg 2 x" ARF_OutASel [1:0] $end
$var reg 2 y" ARF_OutBSel [1:0] $end
$var reg 4 z" ARF_RSel [3:0] $end
$var reg 1 o IR_Enable $end
$var reg 2 {" IR_FunSel [1:0] $end
$var reg 1 m IR_LH $end
$var reg 1 h Mem_CS $end
$var reg 1 g Mem_WR $end
$var reg 2 |" MuxASel [1:0] $end
$var reg 2 }" MuxBSel [1:0] $end
$var reg 1 d MuxCSel $end
$var reg 2 ~" RF_FunSel [1:0] $end
$var reg 3 !# RF_O1Sel [2:0] $end
$var reg 3 "# RF_O2Sel [2:0] $end
$var reg 4 ## RF_RSel [3:0] $end
$var reg 4 $# RF_TSel [3:0] $end
$var reg 1 Z SC_reset $end
$var reg 1 %# temp_SC_reset $end
$upscope $end
$scope module IR_Decoder $end
$var wire 1 x S0 $end
$var wire 1 b S1 $end
$var wire 1 s S10 $end
$var wire 1 i S11 $end
$var wire 1 l S12 $end
$var wire 1 Y S13 $end
$var wire 1 ` S14 $end
$var wire 1 a S15 $end
$var wire 1 c S2 $end
$var wire 1 z S3 $end
$var wire 1 X S4 $end
$var wire 1 j S5 $end
$var wire 1 k S6 $end
$var wire 1 p S7 $end
$var wire 1 q S8 $end
$var wire 1 r S9 $end
$var wire 4 &# s [3:0] $end
$upscope $end
$scope module SC $end
$var wire 1 Z Reset $end
$var wire 1 D clk $end
$var wire 3 '# T [2:0] $end
$var reg 3 (# counter [2:0] $end
$upscope $end
$scope module SC_Decoder $end
$var wire 1 W S0 $end
$var wire 1 V S1 $end
$var wire 1 U S2 $end
$var wire 1 T S3 $end
$var wire 1 S S4 $end
$var wire 1 R S5 $end
$var wire 1 Q S6 $end
$var wire 1 P S7 $end
$var wire 3 )# s [2:0] $end
$upscope $end
$upscope $end
$upscope $end
$enddefinitions $end
#0
$dumpvars
b111 )#
b111 (#
b111 '#
bx &#
0%#
bx $#
bx ##
bx "#
bx !#
bx ~"
bx }"
bx |"
bx {"
bx z"
bx y"
bx x"
bx w"
bx v"
xu"
bx t"
bx s"
bx r"
xq"
xp"
bx o"
xn"
xm"
bx l"
bx k"
bx j"
bx i"
bx h"
bx g"
bx f"
bx e"
bx d"
bx c"
bx b"
bx a"
bx `"
bx _"
bx ^"
bx ]"
bx \"
bx ["
bx Z"
bx Y"
bx X"
bx W"
bx V"
bx U"
bx T"
bx S"
bx R"
bx Q"
bx P"
bx O"
bx N"
bx M"
bx L"
bx K"
bx J"
bx I"
bx H"
bx G"
bx F"
bx E"
bx D"
bx C"
bx B"
bx A"
bx @"
bx ?"
bx >"
bx ="
x<"
bx ;"
bx :"
bx 9"
bx 8"
bx 7"
bx 6"
bx 5"
bx 4"
bx 3"
bx 2"
bx 1"
bx 0"
bx /"
bx ."
bx -"
bx ,"
bx +"
bx *"
bx )"
bx ("
bx '"
bx &"
bx %"
bx $"
bx #"
bx ""
bx !"
bx ~
bx }
bx |
bx {
xz
bx y
xx
bx w
bx v
bx u
bx t
xs
xr
xq
xp
xo
bx n
xm
xl
xk
xj
xi
xh
xg
bx f
bx e
xd
xc
xb
xa
x`
bx _
bx ^
bx ]
bx \
bx [
xZ
xY
xX
0W
0V
0U
0T
0S
0R
0Q
1P
b111 O
bx N
b111 M
bx L
bx K
bx J
bx I
bx H
bx G
bx F
bx E
0D
xC
xB
bx A
bx @
bx ?
x>
x=
x<
x;
bx :
x9
x8
x7
x6
x5
x4
x3
x2
bx 1
bx 0
bx /
bx .
x-
x,
x+
b111 *
0)
0(
0'
0&
0%
0$
0#
1"
bx !
$end
#5000
bz !
bz N
bz )"
bz H"
bz M"
bz O"
bz U"
0p"
0u"
1h
b0 w
b0 2"
b0 A"
b0 w"
b1111 t
b1111 -"
b1111 ="
b1111 z"
b0 _
b0 #"
b0 b"
b0 ~"
b1111 [
b1111 {
b1111 ^"
b1111 $#
b1111 \
b1111 |
b1111 _"
b1111 ##
b0 n
b0 ,"
b0 I"
b0 {"
1o
b0x0x 5"
b0x0x :"
1)
1W
0"
0P
b0 *
b0 M
b0 O
b0 '#
b0 (#
b0 )#
b11 u
b11 ."
b11 >"
b11 y"
1D
#10000
0D
#15000
bx !
bx N
bx )"
bx H"
bx M"
bx O"
bx U"
b0 F"
b0 ?
b0 G
b0 G"
b0 A
b0 E
b0 B"
b0 @
b0 F
b0 E"
b0 i"
b0 j"
b0 k"
b0 l"
b0 1
b0 I
b0 e"
b0 0
b0 J
b0 f"
b0 /
b0 K
b0 g"
b0 .
b0 L
b0 h"
0g
0h
b11 w
b11 2"
b11 A"
b11 w"
b1000 t
b1000 -"
b1000 ="
b1000 z"
b0 [
b0 {
b0 ^"
b0 $#
b0 \
b0 |
b0 _"
b0 ##
b1 n
b1 ,"
b1 I"
b1 {"
1m
0-
0Z
1B
1x
0+
0X
0<
0q
09
0l
05
0c
08
0k
0>
0s
02
0`
0)
0W
04
0b
0C
0z
07
0j
0;
0p
0=
0r
06
0i
0,
0Y
03
0a
1(
1V
b0 &#
b0 *"
b0 P"
b0 V"
0m"
b0 t"
b0 s"
b0 o"
b0 r"
b0 :
b0 H
b0 +"
b0 J"
b1 *
b1 M
b1 O
b1 '#
b1 (#
b1 )#
1D
#20000
0D
#25000
b10010000 !
b10010000 N
b10010000 )"
b10010000 H"
b10010000 M"
b10010000 O"
b10010000 U"
0m
b0 /"
b0 D"
b0 K"
b1 @
b1 F
b1 E"
x+
xX
x7
xj
x8
xk
x;
xp
x<
xq
x=
xr
x>
xs
x6
xi
x9
xl
x,
xY
x2
x`
x3
xa
xB
xx
x5
xc
xC
xz
1'
1U
x4
xb
0(
0V
bx &#
xm"
bx o"
bx r"
b10 *
b10 M
b10 O
b10 '#
b10 (#
b10 )#
bx00000000 :
bx00000000 H
bx00000000 +"
bx00000000 J"
1D
#30000
0D
#35000
bz !
bz N
bz )"
bz H"
bz M"
bz O"
bz U"
b1 /"
b1 D"
b1 K"
b10 @
b10 F
b10 E"
1h
0o
0'
0U
1&
1T
b10010000 *"
b10010000 P"
b10010000 V"
b1001 s"
bx10010000 :
bx10010000 H
bx10010000 +"
bx10010000 J"
b11 *
b11 M
b11 O
b11 '#
b11 (#
b11 )#
1D
#40000
0D
#45000
b100 ]
b100 }
b100 `"
b100 "#
b101 ^
b101 !"
b101 a"
b101 !#
b10 /"
b10 D"
b10 K"
b11 @
b11 F
b11 E"
1%
1S
0&
0T
b100 *
b100 M
b100 O
b100 '#
b100 (#
b100 )#
1D
#50000
0D
#55000
b11 /"
b11 D"
b11 K"
b100 @
b100 F
b100 E"
b0 ~
b0 7"
b0 d"
b0 ""
b0 ["
b0 c"
0%
0S
1$
1R
b101 *
b101 M
b101 O
b101 '#
b101 (#
b101 )#
1D
#60000
0D
#65000
b100 /"
b100 D"
b100 K"
b101 @
b101 F
b101 E"
0%
0S
1#
1Q
0$
0R
b110 *
b110 M
b110 O
b110 '#
b110 (#
b110 )#
b0 9"
1D
#70000
0D
#75000
b101 /"
b101 D"
b101 K"
b110 @
b110 F
b110 E"
0#
0Q
1"
1P
b111 *
b111 M
b111 O
b111 '#
b111 (#
b111 )#
1D
#80000
0D
#85000
b0 w
b0 2"
b0 A"
b0 w"
b1111 t
b1111 -"
b1111 ="
b1111 z"
b1111 [
b1111 {
b1111 ^"
b1111 $#
b1111 \
b1111 |
b1111 _"
b1111 ##
b0 n
b0 ,"
b0 I"
b0 {"
1o
b110 /"
b110 D"
b110 K"
b111 @
b111 F
b111 E"
1)
1W
0"
0P
b0 *
b0 M
b0 O
b0 '#
b0 (#
b0 )#
1D
#90000
0D
#95000
b0 !
b0 N
b0 )"
b0 H"
b0 M"
b0 O"
b0 U"
b111 /"
b111 D"
b111 K"
b0 @
b0 F
b0 E"
0h
b11 w
b11 2"
b11 A"
b11 w"
b1000 t
b1000 -"
b1000 ="
b1000 z"
b0 [
b0 {
b0 ^"
b0 $#
b0 \
b0 |
b0 _"
b0 ##
b1 n
b1 ,"
b1 I"
b1 {"
1m
1B
1x
0+
0X
0<
0q
09
0l
05
0c
08
0k
0>
0s
02
0`
0)
0W
04
0b
0C
0z
07
0j
0;
0p
0=
0r
06
0i
0,
0Y
03
0a
1(
1V
b0 &#
b0 *"
b0 P"
b0 V"
0m"
b0 s"
b0 o"
b0 r"
b0 :
b0 H
b0 +"
b0 J"
b1 *
b1 M
b1 O
b1 '#
b1 (#
b1 )#
1D
#100000
0D
#105000
b10010000 !
b10010000 N
b10010000 )"
b10010000 H"
b10010000 M"
b10010000 O"
b10010000 U"
0m
b0 /"
b0 D"
b0 K"
b1 @
b1 F
b1 E"
1'
1U
0(
0V
b10 *
b10 M
b10 O
b10 '#
b10 (#
b10 )#
1D
#110000
0D
#115000
b0 $"
b0 8"
b0 \"
bz !
bz N
bz )"
bz H"
bz M"
bz O"
bz U"
b1 /"
b1 D"
b1 K"
b10 @
b10 F
b10 E"
1-
1Z
b0 f
b0 '"
b0 R"
b0 |"
b1 _
b1 #"
b1 b"
b1 ~"
0d
b111 y
b111 4"
b111 6"
b111 v"
b100 ^
b100 !"
b100 a"
b100 !#
b1000 \
b1000 |
b1000 _"
b1000 ##
b0 t
b0 -"
b0 ="
b0 z"
1h
0o
0'
0U
1&
1T
b10010000 *"
b10010000 P"
b10010000 V"
b1001 s"
b10010000 :
b10010000 H
b10010000 +"
b10010000 J"
b11 *
b11 M
b11 O
b11 '#
b11 (#
b11 )#
1D
#120000
0D
#125000
b0 ("
b0 S"
b0 ]"
b101 ^
b101 !"
b101 a"
b101 !#
bx 1
bx I
bx e"
b10 /"
b10 D"
b10 K"
b0 3"
b0 ;"
b0 L"
b0 N"
b0 T"
1)
1W
0&
0T
b0 *
b0 M
b0 O
b0 '#
b0 (#
b0 )#
1D
#130000
0D
#135000
b0 !
b0 N
b0 )"
b0 H"
b0 M"
b0 O"
b0 U"
1u"
b1x0x 5"
b1x0x :"
bx ~
bx 7"
bx d"
b0 1
b0 I
b0 e"
0h
b1000 t
b1000 -"
b1000 ="
b1000 z"
b0 \
b0 |
b0 _"
b0 ##
1o
1m
0-
0Z
b0 *
b0 M
b0 O
b0 '#
b0 (#
b0 )#
1D
#140000
0D
#145000
b0 ~
b0 7"
b0 d"
b11 @
b11 F
b11 E"
0)
0W
1(
1V
b1 *
b1 M
b1 O
b1 '#
b1 (#
b1 )#
bx 9"
1D
#150000
0D
#155000
b11 /"
b11 D"
b11 K"
b100 @
b100 F
b100 E"
0m
1'
1U
0(
0V
b0 9"
b10 *
b10 M
b10 O
b10 '#
b10 (#
b10 )#
1D
#160000
0D
#165000
bz !
bz N
bz )"
bz H"
bz M"
bz O"
bz U"
1-
1Z
b1000 \
b1000 |
b1000 _"
b1000 ##
b0 t
b0 -"
b0 ="
b0 z"
1h
0o
b100 /"
b100 D"
b100 K"
b101 @
b101 F
b101 E"
0'
0U
1&
1T
b0 *"
b0 P"
b0 V"
b0 s"
b11 *
b11 M
b11 O
b11 '#
b11 (#
b11 )#
b0 :
b0 H
b0 +"
b0 J"
1D
#170000
0D
#175000
b101 /"
b101 D"
b101 K"
b100 ^
b100 !"
b100 a"
b100 !#
1)
1W
0&
0T
b0 *
b0 M
b0 O
b0 '#
b0 (#
b0 )#
1D
#180000
0D
#185000
b0 !
b0 N
b0 )"
b0 H"
b0 M"
b0 O"
b0 U"
0h
b1000 t
b1000 -"
b1000 ="
b1000 z"
b0 \
b0 |
b0 _"
b0 ##
1o
1m
0-
0Z
b0 *
b0 M
b0 O
b0 '#
b0 (#
b0 )#
1D
#190000
0D
#195000
b110 @
b110 F
b110 E"
0)
0W
1(
1V
b1 *
b1 M
b1 O
b1 '#
b1 (#
b1 )#
1D
#200000
0D
#205000
0m
b110 /"
b110 D"
b110 K"
b111 @
b111 F
b111 E"
1'
1U
0(
0V
b10 *
b10 M
b10 O
b10 '#
b10 (#
b10 )#
1D
#210000
0D
#215000
bz !
bz N
bz )"
bz H"
bz M"
bz O"
bz U"
b111 /"
b111 D"
b111 K"
b1000 @
b1000 F
b1000 E"
1-
1Z
b1000 \
b1000 |
b1000 _"
b1000 ##
b0 t
b0 -"
b0 ="
b0 z"
1h
0o
0'
0U
1&
1T
b11 *
b11 M
b11 O
b11 '#
b11 (#
b11 )#
1D
#220000
0D
#225000
b1000 /"
b1000 D"
b1000 K"
1)
1W
0&
0T
b0 *
b0 M
b0 O
b0 '#
b0 (#
b0 )#
1D
#230000
0D
#235000
b0 !
b0 N
b0 )"
b0 H"
b0 M"
b0 O"
b0 U"
0h
b1000 t
b1000 -"
b1000 ="
b1000 z"
b0 \
b0 |
b0 _"
b0 ##
1o
1m
0-
0Z
b0 *
b0 M
b0 O
b0 '#
b0 (#
b0 )#
1D
#240000
0D
#245000
b1001 @
b1001 F
b1001 E"
0)
0W
1(
1V
b1 *
b1 M
b1 O
b1 '#
b1 (#
b1 )#
1D
#250000
0D
#255000
b1001 /"
b1001 D"
b1001 K"
b1010 @
b1010 F
b1010 E"
0m
1'
1U
0(
0V
b10 *
b10 M
b10 O
b10 '#
b10 (#
b10 )#
1D
#260000
0D
#265000
bz !
bz N
bz )"
bz H"
bz M"
bz O"
bz U"
1-
1Z
b1000 \
b1000 |
b1000 _"
b1000 ##
b0 t
b0 -"
b0 ="
b0 z"
1h
0o
b1010 /"
b1010 D"
b1010 K"
b1011 @
b1011 F
b1011 E"
0'
0U
1&
1T
b11 *
b11 M
b11 O
b11 '#
b11 (#
b11 )#
1D
#270000
0D
#275000
b1011 /"
b1011 D"
b1011 K"
1)
1W
0&
0T
b0 *
b0 M
b0 O
b0 '#
b0 (#
b0 )#
1D
#280000
0D
#285000
b0 !
b0 N
b0 )"
b0 H"
b0 M"
b0 O"
b0 U"
0h
b1000 t
b1000 -"
b1000 ="
b1000 z"
b0 \
b0 |
b0 _"
b0 ##
1o
1m
0-
0Z
b0 *
b0 M
b0 O
b0 '#
b0 (#
b0 )#
1D
#290000
0D
#295000
b1100 @
b1100 F
b1100 E"
0)
0W
1(
1V
b1 *
b1 M
b1 O
b1 '#
b1 (#
b1 )#
1D
#300000
0D
#305000
0m
b1100 /"
b1100 D"
b1100 K"
b1101 @
b1101 F
b1101 E"
1'
1U
0(
0V
b10 *
b10 M
b10 O
b10 '#
b10 (#
b10 )#
1D
#310000
0D
#315000
bz !
bz N
bz )"
bz H"
bz M"
bz O"
bz U"
b1101 /"
b1101 D"
b1101 K"
b1110 @
b1110 F
b1110 E"
1-
1Z
b1000 \
b1000 |
b1000 _"
b1000 ##
b0 t
b0 -"
b0 ="
b0 z"
1h
0o
0'
0U
1&
1T
b11 *
b11 M
b11 O
b11 '#
b11 (#
b11 )#
1D
#320000
0D
#325000
b1110 /"
b1110 D"
b1110 K"
1)
1W
0&
0T
b0 *
b0 M
b0 O
b0 '#
b0 (#
b0 )#
1D
#330000
0D
#335000
b0 !
b0 N
b0 )"
b0 H"
b0 M"
b0 O"
b0 U"
0h
b1000 t
b1000 -"
b1000 ="
b1000 z"
b0 \
b0 |
b0 _"
b0 ##
1o
1m
0-
0Z
b0 *
b0 M
b0 O
b0 '#
b0 (#
b0 )#
1D
#340000
0D
#345000
b1111 @
b1111 F
b1111 E"
0)
0W
1(
1V
b1 *
b1 M
b1 O
b1 '#
b1 (#
b1 )#
1D
#350000
0D
#355000
b1111 /"
b1111 D"
b1111 K"
b10000 @
b10000 F
b10000 E"
0m
1'
1U
0(
0V
b10 *
b10 M
b10 O
b10 '#
b10 (#
b10 )#
1D
#360000
0D
#365000
bz !
bz N
bz )"
bz H"
bz M"
bz O"
bz U"
1-
1Z
b1000 \
b1000 |
b1000 _"
b1000 ##
b0 t
b0 -"
b0 ="
b0 z"
1h
0o
b10000 /"
b10000 D"
b10000 K"
b10001 @
b10001 F
b10001 E"
0'
0U
1&
1T
b11 *
b11 M
b11 O
b11 '#
b11 (#
b11 )#
1D
#370000
0D
#375000
b10001 /"
b10001 D"
b10001 K"
1)
1W
0&
0T
b0 *
b0 M
b0 O
b0 '#
b0 (#
b0 )#
1D
#380000
0D
#385000
b0 !
b0 N
b0 )"
b0 H"
b0 M"
b0 O"
b0 U"
0h
b1000 t
b1000 -"
b1000 ="
b1000 z"
b0 \
b0 |
b0 _"
b0 ##
1o
1m
0-
0Z
b0 *
b0 M
b0 O
b0 '#
b0 (#
b0 )#
1D
#390000
0D
#395000
b10010 @
b10010 F
b10010 E"
0)
0W
1(
1V
b1 *
b1 M
b1 O
b1 '#
b1 (#
b1 )#
1D
#400000
0D
#405000
0m
b10010 /"
b10010 D"
b10010 K"
b10011 @
b10011 F
b10011 E"
1'
1U
0(
0V
b10 *
b10 M
b10 O
b10 '#
b10 (#
b10 )#
1D
#410000
0D
#415000
bz !
bz N
bz )"
bz H"
bz M"
bz O"
bz U"
b10011 /"
b10011 D"
b10011 K"
b10100 @
b10100 F
b10100 E"
1-
1Z
b1000 \
b1000 |
b1000 _"
b1000 ##
b0 t
b0 -"
b0 ="
b0 z"
1h
0o
0'
0U
1&
1T
b11 *
b11 M
b11 O
b11 '#
b11 (#
b11 )#
1D
#420000
0D
#425000
b10100 /"
b10100 D"
b10100 K"
1)
1W
0&
0T
b0 *
b0 M
b0 O
b0 '#
b0 (#
b0 )#
1D
#430000
0D
#435000
b0 !
b0 N
b0 )"
b0 H"
b0 M"
b0 O"
b0 U"
0h
b1000 t
b1000 -"
b1000 ="
b1000 z"
b0 \
b0 |
b0 _"
b0 ##
1o
1m
0-
0Z
b0 *
b0 M
b0 O
b0 '#
b0 (#
b0 )#
1D
#440000
0D
#445000
b10101 @
b10101 F
b10101 E"
0)
0W
1(
1V
b1 *
b1 M
b1 O
b1 '#
b1 (#
b1 )#
1D
#450000
0D
#455000
b10101 /"
b10101 D"
b10101 K"
b10110 @
b10110 F
b10110 E"
0m
1'
1U
0(
0V
b10 *
b10 M
b10 O
b10 '#
b10 (#
b10 )#
1D
#460000
0D
#465000
bz !
bz N
bz )"
bz H"
bz M"
bz O"
bz U"
1-
1Z
b1000 \
b1000 |
b1000 _"
b1000 ##
b0 t
b0 -"
b0 ="
b0 z"
1h
0o
b10110 /"
b10110 D"
b10110 K"
b10111 @
b10111 F
b10111 E"
0'
0U
1&
1T
b11 *
b11 M
b11 O
b11 '#
b11 (#
b11 )#
1D
#470000
0D
#475000
b10111 /"
b10111 D"
b10111 K"
1)
1W
0&
0T
b0 *
b0 M
b0 O
b0 '#
b0 (#
b0 )#
1D
#480000
0D
#485000
b0 !
b0 N
b0 )"
b0 H"
b0 M"
b0 O"
b0 U"
0h
b1000 t
b1000 -"
b1000 ="
b1000 z"
b0 \
b0 |
b0 _"
b0 ##
1o
1m
0-
0Z
b0 *
b0 M
b0 O
b0 '#
b0 (#
b0 )#
1D
#490000
0D
#495000
b11000 @
b11000 F
b11000 E"
0)
0W
1(
1V
b1 *
b1 M
b1 O
b1 '#
b1 (#
b1 )#
1D
#500000
0D
#505000
0m
b11000 /"
b11000 D"
b11000 K"
b11001 @
b11001 F
b11001 E"
1'
1U
0(
0V
b10 *
b10 M
b10 O
b10 '#
b10 (#
b10 )#
1D
#510000
0D
#515000
bz !
bz N
bz )"
bz H"
bz M"
bz O"
bz U"
b11001 /"
b11001 D"
b11001 K"
b11010 @
b11010 F
b11010 E"
1-
1Z
b1000 \
b1000 |
b1000 _"
b1000 ##
b0 t
b0 -"
b0 ="
b0 z"
1h
0o
0'
0U
1&
1T
b11 *
b11 M
b11 O
b11 '#
b11 (#
b11 )#
1D
#520000
0D
#525000
b11010 /"
b11010 D"
b11010 K"
1)
1W
0&
0T
b0 *
b0 M
b0 O
b0 '#
b0 (#
b0 )#
1D
#530000
0D
#535000
b0 !
b0 N
b0 )"
b0 H"
b0 M"
b0 O"
b0 U"
0h
b1000 t
b1000 -"
b1000 ="
b1000 z"
b0 \
b0 |
b0 _"
b0 ##
1o
1m
0-
0Z
b0 *
b0 M
b0 O
b0 '#
b0 (#
b0 )#
1D
#540000
0D
#545000
b11011 @
b11011 F
b11011 E"
0)
0W
1(
1V
b1 *
b1 M
b1 O
b1 '#
b1 (#
b1 )#
1D
#550000
0D
#555000
b11011 /"
b11011 D"
b11011 K"
b11100 @
b11100 F
b11100 E"
0m
1'
1U
0(
0V
b10 *
b10 M
b10 O
b10 '#
b10 (#
b10 )#
1D
#560000
0D
